2.4 Lesson 4 - Tidy data and dplyr | R Course Syllabus
…
relocate() is especially useful when outputting tables (where the order of variables is important).

2.4.2.2.9 summarize

summarize() (or summarise()) collapses data given a set of grouping variables created by group_by() or other means. The most common use of summarize() is for calculating summary statistics:

# Group mtcars by mpg and calculate the mean cylinders and max carburetors within those groups.
mtcars %>%
  group_by(mpg) %>%
  summarize(cyl = mean(cyl),
            carb = max(carb))

## # A tibble: 25 × 3
##      mpg   cyl  carb
##    <dbl> <dbl> <dbl>
##  1  10.4     8     4
##  2  13.3     8     4
##  3  14.3     8     4
##  4  14.7     8     4
##  5  15       8     8
##  6  15.2     8     3
##  7  15.5     8     2
##  8  15.8     8     4
##  9  16.4     8     3
## 10  17.3     8     3
## # … with 15 more rows
…
